{
  "es": {
    "protocol": "http",
    "log": {
      "type": "file",
      "level": "debug",
      "path": "./logs/request.log"
    },
    "requestTimeout": 30000,
    "vars": {
      "MAX_HISTOGRAM_BARS": 100,
      "TIMING_INT": 5,
      "MAX_DATA_POINTS": 900,
      "PROBES_PER_CONFIG": 1
    }
  }
}